{
"instructions_readme": "1) Open Chrome, 2) go to chrome://tracing, 3) click Load, 4) navigate to this file.",

"traceEvents":[
{ "pid": 1, "tid": 1, "ph": "M", "name": "thread_name", "args": { "name": "" } },
{ "pid": 1, "tid": 1, "ts": 1.00000004749745, "dur": 20029517.578125, "ph": "X", "name": "il2cpp.exe", "args": { "durationMS": 20029.517578125, "detail": "" } },
{ "pid": 1, "tid": 1, "ts": 108533.996582031, "dur": 19917562.5, "ph": "X", "name": "ConvertAssemblies", "args": { "durationMS": 19917.5625, "detail": "" } },
{ "pid": 1, "tid": 1, "ts": 131136.001586914, "dur": 125405.006408691, "ph": "X", "name": "Collect assemblies to convert", "args": { "durationMS": 125.405006408691, "detail": "" } },
{ "pid": 1, "tid": 1, "ts": 256704.986572266, "dur": 79533.9965820312, "ph": "X", "name": "RegisterCorlib", "args": { "durationMS": 79.5339965820312, "detail": "" } },
{ "pid": 1, "tid": 1, "ts": 336582.03125, "dur": 115262.992858887, "ph": "X", "name": "PreProcessIL", "args": { "durationMS": 115.262992858887, "detail": "" } },
{ "pid": 1, "tid": 1, "ts": 336582.03125, "dur": 20090.0001525879, "ph": "X", "name": "Inject base types and finalizers into COM and Windows Runtime types", "args": { "durationMS": 20.0900001525879, "detail": "" } },
{ "pid": 1, "tid": 1, "ts": 337123.992919922, "dur": 12798.0003356934, "ph": "X", "name": "ModifyCOMAndWindowsRuntimeTypes in assembly", "args": { "durationMS": 12.7980003356934, "detail": "mscorlib" } },
{ "pid": 1, "tid": 1, "ts": 349923.004150391, "dur": 2212.99982070923, "ph": "X", "name": "ModifyCOMAndWindowsRuntimeTypes in assembly", "args": { "durationMS": 2.21299982070923, "detail": "Mono.Security" } },
{ "pid": 1, "tid": 1, "ts": 352887.023925781, "dur": 1272.99988269806, "ph": "X", "name": "ModifyCOMAndWindowsRuntimeTypes in assembly", "args": { "durationMS": 1.27299988269806, "detail": "UnityEngine.CoreModule" } },
{ "pid": 1, "tid": 1, "ts": 354568.023681641, "dur": 532.999992370605, "ph": "X", "name": "ModifyCOMAndWindowsRuntimeTypes in assembly", "args": { "durationMS": 0.532999992370605, "detail": "UnityEngine.TerrainModule" } },
{ "pid": 1, "tid": 1, "ts": 355726.013183594, "dur": 495.999991893768, "ph": "X", "name": "ModifyCOMAndWindowsRuntimeTypes in assembly", "args": { "durationMS": 0.495999991893768, "detail": "Vuforia.UnityExtensions" } },
{ "pid": 1, "tid": 1, "ts": 356673.004150391, "dur": 95170.0057983398, "ph": "X", "name": "ApplyDefaultMarshalAsAttribute", "args": { "durationMS": 95.1700057983398, "detail": "" } },
{ "pid": 1, "tid": 1, "ts": 357085.998535156, "dur": 31014.9993896484, "ph": "X", "name": "ApplyDefaultMarshalAsAttributeVisitor in assembly", "args": { "durationMS": 31.0149993896484, "detail": "mscorlib" } },
{ "pid": 1, "tid": 1, "ts": 388140.991210938, "dur": 16236.0000610352, "ph": "X", "name": "ApplyDefaultMarshalAsAttributeVisitor in assembly", "args": { "durationMS": 16.2360000610352, "detail": "System" } },
{ "pid": 1, "tid": 1, "ts": 404669.006347656, "dur": 1647.0000743866, "ph": "X", "name": "ApplyDefaultMarshalAsAttributeVisitor in assembly", "args": { "durationMS": 1.6470000743866, "detail": "UnityEngine.CoreModule" } },
{ "pid": 1, "tid": 1, "ts": 407069.000244141, "dur": 578.000009059906, "ph": "X", "name": "ApplyDefaultMarshalAsAttributeVisitor in assembly", "args": { "durationMS": 0.578000009059906, "detail": "UnityEngine.AndroidJNIModule" } },
{ "pid": 1, "tid": 1, "ts": 407996.978759766, "dur": 7894.99998092651, "ph": "X", "name": "ApplyDefaultMarshalAsAttributeVisitor in assembly", "args": { "durationMS": 7.89499998092651, "detail": "UnityEngine.TerrainModule" } },
{ "pid": 1, "tid": 1, "ts": 416251.007080078, "dur": 1427.99997329712, "ph": "X", "name": "ApplyDefaultMarshalAsAttributeVisitor in assembly", "args": { "durationMS": 1.42799997329712, "detail": "UnityEngine.UI" } },
{ "pid": 1, "tid": 1, "ts": 417679.992675781, "dur": 1432.99996852875, "ph": "X", "name": "ApplyDefaultMarshalAsAttributeVisitor in assembly", "args": { "durationMS": 1.43299996852875, "detail": "Unity.TextMeshPro" } },
{ "pid": 1, "tid": 1, "ts": 419113.983154297, "dur": 27394.0010070801, "ph": "X", "name": "ApplyDefaultMarshalAsAttributeVisitor in assembly", "args": { "durationMS": 27.3940010070801, "detail": "Vuforia.UnityExtensions" } },
{ "pid": 1, "tid": 1, "ts": 447013.000488281, "dur": 4823.99988174438, "ph": "X", "name": "ApplyDefaultMarshalAsAttributeVisitor in assembly", "args": { "durationMS": 4.82399988174438, "detail": "VuforiaSamples" } },
{ "pid": 1, "tid": 1, "ts": 452136.016845703, "dur": 23868.0000305176, "ph": "X", "name": "WriteResources", "args": { "durationMS": 23.8680000305176, "detail": "" } },
{ "pid": 1, "tid": 1, "ts": 476339.996337891, "dur": 22811.0008239746, "ph": "X", "name": "CopyEtcFolder", "args": { "durationMS": 22.8110008239746, "detail": "" } },
{ "pid": 1, "tid": 1, "ts": 499582.000732422, "dur": 336384.002685547, "ph": "X", "name": "PreProcessStage", "args": { "durationMS": 336.384002685547, "detail": "" } },
{ "pid": 1, "tid": 1, "ts": 835973.999023438, "dur": 2553.99990081787, "ph": "X", "name": "Debugger Sequence Points", "args": { "durationMS": 2.55399990081787, "detail": "" } },
{ "pid": 1, "tid": 1, "ts": 839278.015136719, "dur": 2472354.98046875, "ph": "X", "name": "Generics Collection", "args": { "durationMS": 2472.35498046875, "detail": "" } },
{ "pid": 1, "tid": 1, "ts": 839278.015136719, "dur": 2431532.95898438, "ph": "X", "name": "GenericsCollector.Collect", "args": { "durationMS": 2431.53295898438, "detail": "" } },
{ "pid": 1, "tid": 1, "ts": 3270811.76757812, "dur": 38979.0000915527, "ph": "X", "name": "CollectGenericVirtualMethods.Collect", "args": { "durationMS": 38.9790000915527, "detail": "" } },
{ "pid": 1, "tid": 1, "ts": 3309791.9921875, "dur": 1451.00009441376, "ph": "X", "name": "AddExtraTypes", "args": { "durationMS": 1.45100009441376, "detail": "" } },
{ "pid": 1, "tid": 1, "ts": 3311634.03320312, "dur": 3407.99999237061, "ph": "X", "name": "Add Windows Runtime type names", "args": { "durationMS": 3.40799999237061, "detail": "" } },
{ "pid": 1, "tid": 1, "ts": 3311634.03320312, "dur": 3407.00006484985, "ph": "X", "name": "Add Windows Runtime type names", "args": { "durationMS": 3.40700006484985, "detail": "" } },
{ "pid": 1, "tid": 1, "ts": 3326408.93554688, "dur": 8137681.15234375, "ph": "X", "name": "AllAssemblyConversion", "args": { "durationMS": 8137.68115234375, "detail": "" } },
{ "pid": 1, "tid": 1, "ts": 3335278.07617188, "dur": 3438581.78710938, "ph": "X", "name": "Convert", "args": { "durationMS": 3438.58178710938, "detail": "mscorlib" } },
{ "pid": 1, "tid": 1, "ts": 3335280.02929688, "dur": 3438579.1015625, "ph": "X", "name": "Code", "args": { "durationMS": 3438.5791015625, "detail": "" } },
{ "pid": 1, "tid": 1, "ts": 3335961.18164062, "dur": 3437896.97265625, "ph": "X", "name": "Methods", "args": { "durationMS": 3437.89697265625, "detail": "Definitions" } },
{ "pid": 1, "tid": 1, "ts": 6779829.1015625, "dur": 9383.00037384033, "ph": "X", "name": "Convert", "args": { "durationMS": 9.38300037384033, "detail": "Mono.Security" } },
{ "pid": 1, "tid": 1, "ts": 6779830.56640625, "dur": 9381.00051879883, "ph": "X", "name": "Code", "args": { "durationMS": 9.38100051879883, "detail": "" } },
{ "pid": 1, "tid": 1, "ts": 6779849.12109375, "dur": 9361.99951171875, "ph": "X", "name": "Methods", "args": { "durationMS": 9.36199951171875, "detail": "Definitions" } },
{ "pid": 1, "tid": 1, "ts": 6795275.87890625, "dur": 401747.009277344, "ph": "X", "name": "Convert", "args": { "durationMS": 401.747009277344, "detail": "System" } },
{ "pid": 1, "tid": 1, "ts": 6795277.83203125, "dur": 401743.988037109, "ph": "X", "name": "Code", "args": { "durationMS": 401.743988037109, "detail": "" } },
{ "pid": 1, "tid": 1, "ts": 6795333.0078125, "dur": 401688.995361328, "ph": "X", "name": "Methods", "args": { "durationMS": 401.688995361328, "detail": "Definitions" } },
{ "pid": 1, "tid": 1, "ts": 7202809.08203125, "dur": 3019.99998092651, "ph": "X", "name": "Convert", "args": { "durationMS": 3.01999998092651, "detail": "System.Configuration" } },
{ "pid": 1, "tid": 1, "ts": 7202810.546875, "dur": 3016.99995994568, "ph": "X", "name": "Code", "args": { "durationMS": 3.01699995994568, "detail": "" } },
{ "pid": 1, "tid": 1, "ts": 7202821.2890625, "dur": 3006.99996948242, "ph": "X", "name": "Methods", "args": { "durationMS": 3.00699996948242, "detail": "Definitions" } },
{ "pid": 1, "tid": 1, "ts": 7212103.02734375, "dur": 670.000016689301, "ph": "X", "name": "Convert", "args": { "durationMS": 0.670000016689301, "detail": "System.Xml" } },
{ "pid": 1, "tid": 1, "ts": 7212104.00390625, "dur": 667.999982833862, "ph": "X", "name": "Code", "args": { "durationMS": 0.667999982833862, "detail": "" } },
{ "pid": 1, "tid": 1, "ts": 7212111.81640625, "dur": 660.000026226044, "ph": "X", "name": "Methods", "args": { "durationMS": 0.660000026226044, "detail": "Definitions" } },
{ "pid": 1, "tid": 1, "ts": 7218528.3203125, "dur": 1309.99994277954, "ph": "X", "name": "Convert", "args": { "durationMS": 1.30999994277954, "detail": "System.Core" } },
{ "pid": 1, "tid": 1, "ts": 7218528.80859375, "dur": 1308.9998960495, "ph": "X", "name": "Code", "args": { "durationMS": 1.3089998960495, "detail": "" } },
{ "pid": 1, "tid": 1, "ts": 7218545.8984375, "dur": 1291.00000858307, "ph": "X", "name": "Methods", "args": { "durationMS": 1.29100000858307, "detail": "Definitions" } },
{ "pid": 1, "tid": 1, "ts": 7227311.03515625, "dur": 13208.9996337891, "ph": "X", "name": "Convert", "args": { "durationMS": 13.2089996337891, "detail": "UnityEngine.SharedInternalsModule" } },
{ "pid": 1, "tid": 1, "ts": 7227312.98828125, "dur": 13206.9997787476, "ph": "X", "name": "Code", "args": { "durationMS": 13.2069997787476, "detail": "" } },
{ "pid": 1, "tid": 1, "ts": 7227329.1015625, "dur": 13189.9995803833, "ph": "X", "name": "Methods", "args": { "durationMS": 13.1899995803833, "detail": "Definitions" } },
{ "pid": 1, "tid": 1, "ts": 7246500.9765625, "dur": 407291.015625, "ph": "X", "name": "Convert", "args": { "durationMS": 407.291015625, "detail": "UnityEngine.CoreModule" } },
{ "pid": 1, "tid": 1, "ts": 7246502.9296875, "dur": 407289.001464844, "ph": "X", "name": "Code", "args": { "durationMS": 407.289001464844, "detail": "" } },
{ "pid": 1, "tid": 1, "ts": 7246663.0859375, "dur": 407128.021240234, "ph": "X", "name": "Methods", "args": { "durationMS": 407.128021240234, "detail": "Definitions" } },
{ "pid": 1, "tid": 1, "ts": 7660448.73046875, "dur": 17654.9987792969, "ph": "X", "name": "Convert", "args": { "durationMS": 17.6549987792969, "detail": "UnityEngine.AssetBundleModule" } },
{ "pid": 1, "tid": 1, "ts": 7660451.66015625, "dur": 17652.0004272461, "ph": "X", "name": "Code", "args": { "durationMS": 17.6520004272461, "detail": "" } },
{ "pid": 1, "tid": 1, "ts": 7660466.30859375, "dur": 17636.999130249, "ph": "X", "name": "Methods", "args": { "durationMS": 17.636999130249, "detail": "Definitions" } },
{ "pid": 1, "tid": 1, "ts": 7683736.81640625, "dur": 18059.9994659424, "ph": "X", "name": "Convert", "args": { "durationMS": 18.0599994659424, "detail": "UnityEngine.PhysicsModule" } },
{ "pid": 1, "tid": 1, "ts": 7683738.76953125, "dur": 18058.0005645752, "ph": "X", "name": "Code", "args": { "durationMS": 18.0580005645752, "detail": "" } },
{ "pid": 1, "tid": 1, "ts": 7683750, "dur": 18047.0008850098, "ph": "X", "name": "Methods", "args": { "durationMS": 18.0470008850098, "detail": "Definitions" } },
{ "pid": 1, "tid": 1, "ts": 7707419.921875, "dur": 14680.9997558594, "ph": "X", "name": "Convert", "args": { "durationMS": 14.6809997558594, "detail": "UnityEngine.TextRenderingModule" } },
{ "pid": 1, "tid": 1, "ts": 7707421.875, "dur": 14677.99949646, "ph": "X", "name": "Code", "args": { "durationMS": 14.67799949646, "detail": "" } },
{ "pid": 1, "tid": 1, "ts": 7707432.12890625, "dur": 14668.0002212524, "ph": "X", "name": "Methods", "args": { "durationMS": 14.6680002212524, "detail": "Definitions" } },
{ "pid": 1, "tid": 1, "ts": 7728954.1015625, "dur": 20500, "ph": "X", "name": "Convert", "args": { "durationMS": 20.5, "detail": "UnityEngine.UnityWebRequestModule" } },
{ "pid": 1, "tid": 1, "ts": 7728955.078125, "dur": 20498.9986419678, "ph": "X", "name": "Code", "args": { "durationMS": 20.4989986419678, "detail": "" } },
{ "pid": 1, "tid": 1, "ts": 7728967.28515625, "dur": 20486.0000610352, "ph": "X", "name": "Methods", "args": { "durationMS": 20.4860000610352, "detail": "Definitions" } },
{ "pid": 1, "tid": 1, "ts": 7755869.140625, "dur": 10954.0004730225, "ph": "X", "name": "Convert", "args": { "durationMS": 10.9540004730225, "detail": "UnityEngine.AudioModule" } },
{ "pid": 1, "tid": 1, "ts": 7755871.09375, "dur": 10951.9996643066, "ph": "X", "name": "Code", "args": { "durationMS": 10.9519996643066, "detail": "" } },
{ "pid": 1, "tid": 1, "ts": 7755885.25390625, "dur": 10938.0006790161, "ph": "X", "name": "Methods", "args": { "durationMS": 10.9380006790161, "detail": "Definitions" } },
{ "pid": 1, "tid": 1, "ts": 7772598.14453125, "dur": 702.000021934509, "ph": "X", "name": "Convert", "args": { "durationMS": 0.702000021934509, "detail": "UnityEngine.GridModule" } },
{ "pid": 1, "tid": 1, "ts": 7772599.12109375, "dur": 700.999975204468, "ph": "X", "name": "Code", "args": { "durationMS": 0.700999975204468, "detail": "" } },
{ "pid": 1, "tid": 1, "ts": 7772604.4921875, "dur": 694.999992847443, "ph": "X", "name": "Methods", "args": { "durationMS": 0.694999992847443, "detail": "Definitions" } },
{ "pid": 1, "tid": 1, "ts": 7779130.859375, "dur": 83636.0015869141, "ph": "X", "name": "Convert", "args": { "durationMS": 83.6360015869141, "detail": "UnityEngine.IMGUIModule" } },
{ "pid": 1, "tid": 1, "ts": 7779132.32421875, "dur": 83634.0026855469, "ph": "X", "name": "Code", "args": { "durationMS": 83.6340026855469, "detail": "" } },
{ "pid": 1, "tid": 1, "ts": 7779149.90234375, "dur": 83615.9973144531, "ph": "X", "name": "Methods", "args": { "durationMS": 83.6159973144531, "detail": "Definitions" } },
{ "pid": 1, "tid": 1, "ts": 7868244.62890625, "dur": 1087.00001239777, "ph": "X", "name": "Convert", "args": { "durationMS": 1.08700001239777, "detail": "UnityEngine.ImageConversionModule" } },
{ "pid": 1, "tid": 1, "ts": 7868247.0703125, "dur": 1084.99991893768, "ph": "X", "name": "Code", "args": { "durationMS": 1.08499991893768, "detail": "" } },
{ "pid": 1, "tid": 1, "ts": 7868256.34765625, "dur": 1075.00004768372, "ph": "X", "name": "Methods", "args": { "durationMS": 1.07500004768372, "detail": "Definitions" } },
{ "pid": 1, "tid": 1, "ts": 7875254.39453125, "dur": 16447.00050354, "ph": "X", "name": "Convert", "args": { "durationMS": 16.44700050354, "detail": "UnityEngine.Physics2DModule" } },
{ "pid": 1, "tid": 1, "ts": 7875256.8359375, "dur": 16444.9996948242, "ph": "X", "name": "Code", "args": { "durationMS": 16.4449996948242, "detail": "" } },
{ "pid": 1, "tid": 1, "ts": 7875267.08984375, "dur": 16434.9994659424, "ph": "X", "name": "Methods", "args": { "durationMS": 16.4349994659424, "detail": "Definitions" } },
{ "pid": 1, "tid": 1, "ts": 7897362.79296875, "dur": 3590.00015258789, "ph": "X", "name": "Convert", "args": { "durationMS": 3.59000015258789, "detail": "UnityEngine.UnityWebRequestAssetBundleModule" } },
{ "pid": 1, "tid": 1, "ts": 7897363.76953125, "dur": 3588.00005912781, "ph": "X", "name": "Code", "args": { "durationMS": 3.58800005912781, "detail": "" } },
{ "pid": 1, "tid": 1, "ts": 7897371.09375, "dur": 3580.99985122681, "ph": "X", "name": "Methods", "args": { "durationMS": 3.58099985122681, "detail": "Definitions" } },
{ "pid": 1, "tid": 1, "ts": 7906364.74609375, "dur": 46362.9989624023, "ph": "X", "name": "Convert", "args": { "durationMS": 46.3629989624023, "detail": "UnityEngine.XRModule" } },
{ "pid": 1, "tid": 1, "ts": 7906365.72265625, "dur": 46361.0038757324, "ph": "X", "name": "Code", "args": { "durationMS": 46.3610038757324, "detail": "" } },
{ "pid": 1, "tid": 1, "ts": 7906408.69140625, "dur": 46317.9969787598, "ph": "X", "name": "Methods", "args": { "durationMS": 46.3179969787598, "detail": "Definitions" } },
{ "pid": 1, "tid": 1, "ts": 7958322.265625, "dur": 1556.99992179871, "ph": "X", "name": "Convert", "args": { "durationMS": 1.55699992179871, "detail": "UnityEngine.AIModule" } },
{ "pid": 1, "tid": 1, "ts": 7958324.21875, "dur": 1555.0000667572, "ph": "X", "name": "Code", "args": { "durationMS": 1.5550000667572, "detail": "" } },
{ "pid": 1, "tid": 1, "ts": 7958331.54296875, "dur": 1546.0000038147, "ph": "X", "name": "Methods", "args": { "durationMS": 1.5460000038147, "detail": "Definitions" } },
{ "pid": 1, "tid": 1, "ts": 7965711.9140625, "dur": 54768.0015563965, "ph": "X", "name": "Convert", "args": { "durationMS": 54.7680015563965, "detail": "UnityEngine.AndroidJNIModule" } },
{ "pid": 1, "tid": 1, "ts": 7965714.35546875, "dur": 54765.998840332, "ph": "X", "name": "Code", "args": { "durationMS": 54.765998840332, "detail": "" } },
{ "pid": 1, "tid": 1, "ts": 7965727.05078125, "dur": 54752.0027160645, "ph": "X", "name": "Methods", "args": { "durationMS": 54.7520027160645, "detail": "Definitions" } },
{ "pid": 1, "tid": 1, "ts": 8026816.89453125, "dur": 22758.0013275146, "ph": "X", "name": "Convert", "args": { "durationMS": 22.7580013275146, "detail": "UnityEngine.AnimationModule" } },
{ "pid": 1, "tid": 1, "ts": 8026819.82421875, "dur": 22754.0016174316, "ph": "X", "name": "Code", "args": { "durationMS": 22.7540016174316, "detail": "" } },
{ "pid": 1, "tid": 1, "ts": 8026845.21484375, "dur": 22729.0000915527, "ph": "X", "name": "Methods", "args": { "durationMS": 22.7290000915527, "detail": "Definitions" } },
{ "pid": 1, "tid": 1, "ts": 8055380.859375, "dur": 1463.99998664856, "ph": "X", "name": "Convert", "args": { "durationMS": 1.46399998664856, "detail": "UnityEngine.DirectorModule" } },
{ "pid": 1, "tid": 1, "ts": 8055383.30078125, "dur": 1462.00001239777, "ph": "X", "name": "Code", "args": { "durationMS": 1.46200001239777, "detail": "" } },
{ "pid": 1, "tid": 1, "ts": 8055390.625, "dur": 1453.9999961853, "ph": "X", "name": "Methods", "args": { "durationMS": 1.4539999961853, "detail": "Definitions" } },
{ "pid": 1, "tid": 1, "ts": 8063055.17578125, "dur": 32948.0018615723, "ph": "X", "name": "Convert", "args": { "durationMS": 32.9480018615723, "detail": "UnityEngine.GameCenterModule" } },
{ "pid": 1, "tid": 1, "ts": 8063056.15234375, "dur": 32946.9985961914, "ph": "X", "name": "Code", "args": { "durationMS": 32.9469985961914, "detail": "" } },
{ "pid": 1, "tid": 1, "ts": 8063075.1953125, "dur": 32927.001953125, "ph": "X", "name": "Methods", "args": { "durationMS": 32.927001953125, "detail": "Definitions" } },
{ "pid": 1, "tid": 1, "ts": 8102104.98046875, "dur": 13363.9993667603, "ph": "X", "name": "Convert", "args": { "durationMS": 13.3639993667603, "detail": "UnityEngine.InputLegacyModule" } },
{ "pid": 1, "tid": 1, "ts": 8102105.95703125, "dur": 13362.9999160767, "ph": "X", "name": "Code", "args": { "durationMS": 13.3629999160767, "detail": "" } },
{ "pid": 1, "tid": 1, "ts": 8102117.1875, "dur": 13350.9998321533, "ph": "X", "name": "Methods", "args": { "durationMS": 13.3509998321533, "detail": "Definitions" } },
{ "pid": 1, "tid": 1, "ts": 8121132.8125, "dur": 3991.00017547607, "ph": "X", "name": "Convert", "args": { "durationMS": 3.99100017547607, "detail": "UnityEngine.InputModule" } },
{ "pid": 1, "tid": 1, "ts": 8121134.27734375, "dur": 3990.00000953674, "ph": "X", "name": "Code", "args": { "durationMS": 3.99000000953674, "detail": "" } },
{ "pid": 1, "tid": 1, "ts": 8121142.08984375, "dur": 3980.99994659424, "ph": "X", "name": "Methods", "args": { "durationMS": 3.98099994659424, "detail": "Definitions" } },
{ "pid": 1, "tid": 1, "ts": 8130620.1171875, "dur": 10847.9995727539, "ph": "X", "name": "Convert", "args": { "durationMS": 10.8479995727539, "detail": "UnityEngine.ParticleSystemModule" } },
{ "pid": 1, "tid": 1, "ts": 8130621.09375, "dur": 10845.9997177124, "ph": "X", "name": "Code", "args": { "durationMS": 10.8459997177124, "detail": "" } },
{ "pid": 1, "tid": 1, "ts": 8130630.859375, "dur": 10835.9994888306, "ph": "X", "name": "Methods", "args": { "durationMS": 10.8359994888306, "detail": "Definitions" } },
{ "pid": 1, "tid": 1, "ts": 8147231.4453125, "dur": 22927.0000457764, "ph": "X", "name": "Convert", "args": { "durationMS": 22.9270000457764, "detail": "UnityEngine.TerrainModule" } },
{ "pid": 1, "tid": 1, "ts": 8147232.421875, "dur": 22926.0005950928, "ph": "X", "name": "Code", "args": { "durationMS": 22.9260005950928, "detail": "" } },
{ "pid": 1, "tid": 1, "ts": 8147246.09375, "dur": 22913.0001068115, "ph": "X", "name": "Methods", "args": { "durationMS": 22.9130001068115, "detail": "Definitions" } },
{ "pid": 1, "tid": 1, "ts": 8175979.98046875, "dur": 27650.0015258789, "ph": "X", "name": "Convert", "args": { "durationMS": 27.6500015258789, "detail": "UnityEngine.TextCoreModule" } },
{ "pid": 1, "tid": 1, "ts": 8175981.93359375, "dur": 27648.0007171631, "ph": "X", "name": "Code", "args": { "durationMS": 27.6480007171631, "detail": "" } },
{ "pid": 1, "tid": 1, "ts": 8175994.140625, "dur": 27635.0002288818, "ph": "X", "name": "Methods", "args": { "durationMS": 27.6350002288818, "detail": "Definitions" } },
{ "pid": 1, "tid": 1, "ts": 8209933.59375, "dur": 6565.00005722046, "ph": "X", "name": "Convert", "args": { "durationMS": 6.56500005722046, "detail": "UnityEngine.TilemapModule" } },
{ "pid": 1, "tid": 1, "ts": 8209935.546875, "dur": 6562.9997253418, "ph": "X", "name": "Code", "args": { "durationMS": 6.5629997253418, "detail": "" } },
{ "pid": 1, "tid": 1, "ts": 8209973.6328125, "dur": 6524.00016784668, "ph": "X", "name": "Methods", "args": { "durationMS": 6.52400016784668, "detail": "Definitions" } },
{ "pid": 1, "tid": 1, "ts": 8222744.140625, "dur": 15303.0004501343, "ph": "X", "name": "Convert", "args": { "durationMS": 15.3030004501343, "detail": "UnityEngine.UIElementsModule" } },
{ "pid": 1, "tid": 1, "ts": 8222747.0703125, "dur": 15299.0007400513, "ph": "X", "name": "Code", "args": { "durationMS": 15.2990007400513, "detail": "" } },
{ "pid": 1, "tid": 1, "ts": 8222757.8125, "dur": 15288.0001068115, "ph": "X", "name": "Methods", "args": { "durationMS": 15.2880001068115, "detail": "Definitions" } },
{ "pid": 1, "tid": 1, "ts": 8260845.703125, "dur": 58852.0011901855, "ph": "X", "name": "Convert", "args": { "durationMS": 58.8520011901855, "detail": "UnityEngine.UIModule" } },
{ "pid": 1, "tid": 1, "ts": 8260847.65625, "dur": 58849.0028381348, "ph": "X", "name": "Code", "args": { "durationMS": 58.8490028381348, "detail": "" } },
{ "pid": 1, "tid": 1, "ts": 8260865.234375, "dur": 58831.0012817383, "ph": "X", "name": "Methods", "args": { "durationMS": 58.8310012817383, "detail": "Definitions" } },
{ "pid": 1, "tid": 1, "ts": 8326766.6015625, "dur": 6488.99984359741, "ph": "X", "name": "Convert", "args": { "durationMS": 6.48899984359741, "detail": "UnityEngine.UnityAnalyticsModule" } },
{ "pid": 1, "tid": 1, "ts": 8326769.53125, "dur": 6485.0001335144, "ph": "X", "name": "Code", "args": { "durationMS": 6.4850001335144, "detail": "" } },
{ "pid": 1, "tid": 1, "ts": 8326785.15625, "dur": 6469.00033950806, "ph": "X", "name": "Methods", "args": { "durationMS": 6.46900033950806, "detail": "Definitions" } },
{ "pid": 1, "tid": 1, "ts": 8339409.1796875, "dur": 4455.99985122681, "ph": "X", "name": "Convert", "args": { "durationMS": 4.45599985122681, "detail": "UnityEngine.UnityWebRequestWWWModule" } },
{ "pid": 1, "tid": 1, "ts": 8339412.109375, "dur": 4451.99966430664, "ph": "X", "name": "Code", "args": { "durationMS": 4.45199966430664, "detail": "" } },
{ "pid": 1, "tid": 1, "ts": 8339427.734375, "dur": 4435.99987030029, "ph": "X", "name": "Methods", "args": { "durationMS": 4.43599987030029, "detail": "Definitions" } },
{ "pid": 1, "tid": 1, "ts": 8350966.796875, "dur": 4639.9998664856, "ph": "X", "name": "Convert", "args": { "durationMS": 4.6399998664856, "detail": "UnityEngine.VFXModule" } },
{ "pid": 1, "tid": 1, "ts": 8350969.7265625, "dur": 4637.00008392334, "ph": "X", "name": "Code", "args": { "durationMS": 4.63700008392334, "detail": "" } },
{ "pid": 1, "tid": 1, "ts": 8350986.328125, "dur": 4620.00036239624, "ph": "X", "name": "Methods", "args": { "durationMS": 4.62000036239624, "detail": "Definitions" } },
{ "pid": 1, "tid": 1, "ts": 8362441.40625, "dur": 1467.00000762939, "ph": "X", "name": "Convert", "args": { "durationMS": 1.46700000762939, "detail": "UnityEngine.VRModule" } },
{ "pid": 1, "tid": 1, "ts": 8362443.359375, "dur": 1464.99991416931, "ph": "X", "name": "Code", "args": { "durationMS": 1.46499991416931, "detail": "" } },
{ "pid": 1, "tid": 1, "ts": 8362455.078125, "dur": 1452.00002193451, "ph": "X", "name": "Methods", "args": { "durationMS": 1.45200002193451, "detail": "Definitions" } },
{ "pid": 1, "tid": 1, "ts": 8369908.203125, "dur": 9032.99999237061, "ph": "X", "name": "Convert", "args": { "durationMS": 9.03299999237061, "detail": "UnityEngine.VideoModule" } },
{ "pid": 1, "tid": 1, "ts": 8369910.15625, "dur": 9031.0001373291, "ph": "X", "name": "Code", "args": { "durationMS": 9.0310001373291, "detail": "" } },
{ "pid": 1, "tid": 1, "ts": 8369923.828125, "dur": 9016.00074768066, "ph": "X", "name": "Methods", "args": { "durationMS": 9.01600074768066, "detail": "Definitions" } },
{ "pid": 1, "tid": 1, "ts": 8385172.8515625, "dur": 528.999984264374, "ph": "X", "name": "Convert", "args": { "durationMS": 0.528999984264374, "detail": "UnityEngine" } },
{ "pid": 1, "tid": 1, "ts": 8385175.78125, "dur": 524.999976158142, "ph": "X", "name": "Code", "args": { "durationMS": 0.524999976158142, "detail": "" } },
{ "pid": 1, "tid": 1, "ts": 8385185.546875, "dur": 514.999985694885, "ph": "X", "name": "Methods", "args": { "durationMS": 0.514999985694885, "detail": "Definitions" } },
{ "pid": 1, "tid": 1, "ts": 8393464.84375, "dur": 506374.0234375, "ph": "X", "name": "Convert", "args": { "durationMS": 506.3740234375, "detail": "UnityEngine.UI" } },
{ "pid": 1, "tid": 1, "ts": 8393467.7734375, "dur": 506371.002197266, "ph": "X", "name": "Code", "args": { "durationMS": 506.371002197266, "detail": "" } },
{ "pid": 1, "tid": 1, "ts": 8393596.6796875, "dur": 506240.997314453, "ph": "X", "name": "Methods", "args": { "durationMS": 506.240997314453, "detail": "Definitions" } },
{ "pid": 1, "tid": 1, "ts": 8905675.78125, "dur": 909744.995117188, "ph": "X", "name": "Convert", "args": { "durationMS": 909.744995117188, "detail": "Unity.TextMeshPro" } },
{ "pid": 1, "tid": 1, "ts": 8905676.7578125, "dur": 909744.018554688, "ph": "X", "name": "Code", "args": { "durationMS": 909.744018554688, "detail": "" } },
{ "pid": 1, "tid": 1, "ts": 8905744.140625, "dur": 909676.940917969, "ph": "X", "name": "Methods", "args": { "durationMS": 909.676940917969, "detail": "Definitions" } },
{ "pid": 1, "tid": 1, "ts": 9833688.4765625, "dur": 1011142.94433594, "ph": "X", "name": "Convert", "args": { "durationMS": 1011.14294433594, "detail": "Vuforia.UnityExtensions" } },
{ "pid": 1, "tid": 1, "ts": 9833689.453125, "dur": 1011142.02880859, "ph": "X", "name": "Code", "args": { "durationMS": 1011.14202880859, "detail": "" } },
{ "pid": 1, "tid": 1, "ts": 9833823.2421875, "dur": 1011006.95800781, "ph": "X", "name": "Methods", "args": { "durationMS": 1011.00695800781, "detail": "Definitions" } },
{ "pid": 1, "tid": 1, "ts": 10850519.53125, "dur": 71065.0024414062, "ph": "X", "name": "Convert", "args": { "durationMS": 71.0650024414062, "detail": "CommonScripts" } },
{ "pid": 1, "tid": 1, "ts": 10850521.484375, "dur": 71063.0035400391, "ph": "X", "name": "Code", "args": { "durationMS": 71.0630035400391, "detail": "" } },
{ "pid": 1, "tid": 1, "ts": 10850541.015625, "dur": 71042.9992675781, "ph": "X", "name": "Methods", "args": { "durationMS": 71.0429992675781, "detail": "Definitions" } },
{ "pid": 1, "tid": 1, "ts": 10927173.828125, "dur": 19925.0011444092, "ph": "X", "name": "Convert", "args": { "durationMS": 19.9250011444092, "detail": "VuforiaScripts" } },
{ "pid": 1, "tid": 1, "ts": 10927174.8046875, "dur": 19924.0016937256, "ph": "X", "name": "Code", "args": { "durationMS": 19.9240016937256, "detail": "" } },
{ "pid": 1, "tid": 1, "ts": 10927185.546875, "dur": 19913.0001068115, "ph": "X", "name": "Methods", "args": { "durationMS": 19.9130001068115, "detail": "Definitions" } },
{ "pid": 1, "tid": 1, "ts": 10952891.6015625, "dur": 114924.003601074, "ph": "X", "name": "Convert", "args": { "durationMS": 114.924003601074, "detail": "SamplesScripts" } },
{ "pid": 1, "tid": 1, "ts": 10952893.5546875, "dur": 114920.997619629, "ph": "X", "name": "Code", "args": { "durationMS": 114.920997619629, "detail": "" } },
{ "pid": 1, "tid": 1, "ts": 10952915.0390625, "dur": 114898.002624512, "ph": "X", "name": "Methods", "args": { "durationMS": 114.898002624512, "detail": "Definitions" } },
{ "pid": 1, "tid": 1, "ts": 11075144.53125, "dur": 388939.025878906, "ph": "X", "name": "Convert", "args": { "durationMS": 388.939025878906, "detail": "VuforiaSamples" } },
{ "pid": 1, "tid": 1, "ts": 11075146.484375, "dur": 388936.004638672, "ph": "X", "name": "Code", "args": { "durationMS": 388.936004638672, "detail": "" } },
{ "pid": 1, "tid": 1, "ts": 11075225.5859375, "dur": 388856.994628906, "ph": "X", "name": "Methods", "args": { "durationMS": 388.856994628906, "detail": "Definitions" } },
{ "pid": 1, "tid": 1, "ts": 11464090.8203125, "dur": 5028114.74609375, "ph": "X", "name": "WriteGenerics", "args": { "durationMS": 5028.11474609375, "detail": "" } },
{ "pid": 1, "tid": 1, "ts": 11473242.1875, "dur": 23218.9998626709, "ph": "X", "name": "Arrays Definitions", "args": { "durationMS": 23.2189998626709, "detail": "" } },
{ "pid": 1, "tid": 1, "ts": 11496901.3671875, "dur": 1178214.11132812, "ph": "X", "name": "GenericInstanceMethods", "args": { "durationMS": 1178.21411132812, "detail": "" } },
{ "pid": 1, "tid": 1, "ts": 12675116.2109375, "dur": 3292815.18554688, "ph": "X", "name": "GenericInstanceTypes", "args": { "durationMS": 3292.81518554688, "detail": "" } },
{ "pid": 1, "tid": 1, "ts": 15968258.7890625, "dur": 523939.025878906, "ph": "X", "name": "GenericComDefinitions", "args": { "durationMS": 523.939025878906, "detail": "" } },
{ "pid": 1, "tid": 1, "ts": 16502527.34375, "dur": 442428.985595703, "ph": "X", "name": "MetadataCollector", "args": { "durationMS": 442.428985595703, "detail": "" } },
{ "pid": 1, "tid": 1, "ts": 16507626.953125, "dur": 25000, "ph": "X", "name": "UpdateEmptyTokens", "args": { "durationMS": 25, "detail": "" } },
{ "pid": 1, "tid": 1, "ts": 16535017.578125, "dur": 22121.000289917, "ph": "X", "name": "ValidateTokens", "args": { "durationMS": 22.121000289917, "detail": "" } },
{ "pid": 1, "tid": 1, "ts": 16945345.703125, "dur": 2764.9998664856, "ph": "X", "name": "Write COM Callable Wrappers", "args": { "durationMS": 2.7649998664856, "detail": "" } },
{ "pid": 1, "tid": 1, "ts": 16947587.890625, "dur": 521.000027656555, "ph": "X", "name": "Collect implemented projected interfaces by COM Callable Wrappers", "args": { "durationMS": 0.521000027656555, "detail": "" } },
{ "pid": 1, "tid": 1, "ts": 16948111.328125, "dur": 3074648.92578125, "ph": "X", "name": "Metadata", "args": { "durationMS": 3074.64892578125, "detail": "Global" } },
{ "pid": 1, "tid": 1, "ts": 17013841.796875, "dur": 602402.954101562, "ph": "X", "name": "Attributes", "args": { "durationMS": 602.402954101562, "detail": "" } },
{ "pid": 1, "tid": 1, "ts": 17844873.046875, "dur": 470194.000244141, "ph": "X", "name": "WriteCodeRegistration", "args": { "durationMS": 470.194000244141, "detail": "" } },
{ "pid": 1, "tid": 1, "ts": 17905236.328125, "dur": 6608.99972915649, "ph": "X", "name": "GenericContextCollector", "args": { "durationMS": 6.60899972915649, "detail": "Collect" } },
{ "pid": 1, "tid": 1, "ts": 17937990.234375, "dur": 411.00001335144, "ph": "X", "name": "GenericContextCollector", "args": { "durationMS": 0.41100001335144, "detail": "Collect" } },
{ "pid": 1, "tid": 1, "ts": 17951580.078125, "dur": 460.00000834465, "ph": "X", "name": "GenericContextCollector", "args": { "durationMS": 0.46000000834465, "detail": "Collect" } },
{ "pid": 1, "tid": 1, "ts": 18019033.203125, "dur": 547.999978065491, "ph": "X", "name": "GenericContextCollector", "args": { "durationMS": 0.547999978065491, "detail": "Collect" } },
{ "pid": 1, "tid": 1, "ts": 18038210.9375, "dur": 4606.99987411499, "ph": "X", "name": "ReversePInvokerWrapperTable", "args": { "durationMS": 4.60699987411499, "detail": "Il2CppReversePInvokeWrapperTable.cpp" } },
{ "pid": 1, "tid": 1, "ts": 18043314.453125, "dur": 151242.004394531, "ph": "X", "name": "GenericMethodPointerTable", "args": { "durationMS": 151.242004394531, "detail": "Il2CppGenericMethodPointerTable.cpp" } },
{ "pid": 1, "tid": 1, "ts": 18194939.453125, "dur": 99819.0002441406, "ph": "X", "name": "InvokerTable", "args": { "durationMS": 99.8190002441406, "detail": "Il2CppInvokerTable.cpp" } },
{ "pid": 1, "tid": 1, "ts": 18296242.1875, "dur": 14222.9995727539, "ph": "X", "name": "InteropDataTable", "args": { "durationMS": 14.2229995727539, "detail": "Il2CppInteropDataTable.cpp" } },
{ "pid": 1, "tid": 1, "ts": 18315070.3125, "dur": 1707688.96484375, "ph": "X", "name": "WriteMetadata", "args": { "durationMS": 1707.68896484375, "detail": "" } },
{ "pid": 1, "tid": 1, "ts": 18441349.609375, "dur": 5886.00015640259, "ph": "X", "name": "Metadata", "args": { "durationMS": 5.88600015640259, "detail": "Collect string literals" } },
{ "pid": 1, "tid": 1, "ts": 18623826.171875, "dur": 111354.00390625, "ph": "X", "name": "GenericClasses", "args": { "durationMS": 111.35400390625, "detail": "" } },
{ "pid": 1, "tid": 1, "ts": 18735179.6875, "dur": 39126.9989013672, "ph": "X", "name": "GenericInst2", "args": { "durationMS": 39.1269989013672, "detail": "" } },
{ "pid": 1, "tid": 1, "ts": 18774308.59375, "dur": 380497.985839844, "ph": "X", "name": "GenericMethods", "args": { "durationMS": 380.497985839844, "detail": "" } },
{ "pid": 1, "tid": 1, "ts": 19154806.640625, "dur": 248300.994873047, "ph": "X", "name": "Il2CppTypes", "args": { "durationMS": 248.300994873047, "detail": "" } },
{ "pid": 1, "tid": 1, "ts": 19403107.421875, "dur": 151427.001953125, "ph": "X", "name": "GenericMethods", "args": { "durationMS": 151.427001953125, "detail": "" } },
{ "pid": 1, "tid": 1, "ts": 19554535.15625, "dur": 233582.000732422, "ph": "X", "name": "CompilerCalculateTypeValues", "args": { "durationMS": 233.582000732422, "detail": "" } },
{ "pid": 1, "tid": 1, "ts": 19788117.1875, "dur": 3644.99998092651, "ph": "X", "name": "Registration", "args": { "durationMS": 3.64499998092651, "detail": "" } },
{ "pid": 1, "tid": 1, "ts": 19792007.8125, "dur": 6585.99996566772, "ph": "X", "name": "StringLiteralWriter", "args": { "durationMS": 6.58599996566772, "detail": "" } },
{ "pid": 1, "tid": 1, "ts": 19798933.59375, "dur": 1263.00001144409, "ph": "X", "name": "Metadata Strings", "args": { "durationMS": 1.26300001144409, "detail": "" } },
{ "pid": 1, "tid": 1, "ts": 19800201.171875, "dur": 3360.99982261658, "ph": "X", "name": "Events", "args": { "durationMS": 3.36099982261658, "detail": "" } },
{ "pid": 1, "tid": 1, "ts": 19803562.5, "dur": 6056.00023269653, "ph": "X", "name": "Properties", "args": { "durationMS": 6.05600023269653, "detail": "" } },
{ "pid": 1, "tid": 1, "ts": 19809621.09375, "dur": 85418.9987182617, "ph": "X", "name": "Methods", "args": { "durationMS": 85.4189987182617, "detail": "" } },
{ "pid": 1, "tid": 1, "ts": 19895039.0625, "dur": 1093.99998188019, "ph": "X", "name": "Parameter Default Values", "args": { "durationMS": 1.09399998188019, "detail": "" } },
{ "pid": 1, "tid": 1, "ts": 19896136.71875, "dur": 1719.00010108948, "ph": "X", "name": "Field Default Values", "args": { "durationMS": 1.71900010108948, "detail": "" } },
{ "pid": 1, "tid": 1, "ts": 19897871.09375, "dur": 597.000002861023, "ph": "X", "name": "Field and Parameter Default Values Data", "args": { "durationMS": 0.597000002861023, "detail": "" } },
{ "pid": 1, "tid": 1, "ts": 19898466.796875, "dur": 842.999994754791, "ph": "X", "name": "Field Marshaled Sizes", "args": { "durationMS": 0.842999994754791, "detail": "" } },
{ "pid": 1, "tid": 1, "ts": 19899308.59375, "dur": 16600.0003814697, "ph": "X", "name": "Parameters", "args": { "durationMS": 16.6000003814697, "detail": "" } },
{ "pid": 1, "tid": 1, "ts": 19915910.15625, "dur": 10373.9995956421, "ph": "X", "name": "Fields", "args": { "durationMS": 10.3739995956421, "detail": "" } },
{ "pid": 1, "tid": 1, "ts": 19926287.109375, "dur": 1808.9998960495, "ph": "X", "name": "Generic Parameters", "args": { "durationMS": 1.8089998960495, "detail": "" } },
{ "pid": 1, "tid": 1, "ts": 19928097.65625, "dur": 508.000016212463, "ph": "X", "name": "Generic Parameter Constraints", "args": { "durationMS": 0.508000016212463, "detail": "" } },
{ "pid": 1, "tid": 1, "ts": 19928603.515625, "dur": 1615.00000953674, "ph": "X", "name": "Generic Containers", "args": { "durationMS": 1.61500000953674, "detail": "" } },
{ "pid": 1, "tid": 1, "ts": 19930220.703125, "dur": 493.000000715256, "ph": "X", "name": "Nested Types", "args": { "durationMS": 0.493000000715256, "detail": "" } },
{ "pid": 1, "tid": 1, "ts": 19930714.84375, "dur": 481.99999332428, "ph": "X", "name": "Interfaces", "args": { "durationMS": 0.48199999332428, "detail": "" } },
{ "pid": 1, "tid": 1, "ts": 19931199.21875, "dur": 1511.99996471405, "ph": "X", "name": "VTables", "args": { "durationMS": 1.51199996471405, "detail": "" } },
{ "pid": 1, "tid": 1, "ts": 19932710.9375, "dur": 1574.00000095367, "ph": "X", "name": "Interface Offsets", "args": { "durationMS": 1.57400000095367, "detail": "" } },
{ "pid": 1, "tid": 1, "ts": 19934283.203125, "dur": 55014.9993896484, "ph": "X", "name": "Type Definitions", "args": { "durationMS": 55.0149993896484, "detail": "" } },
{ "pid": 1, "tid": 1, "ts": 19989300.78125, "dur": 5132.00044631958, "ph": "X", "name": "Images", "args": { "durationMS": 5.13200044631958, "detail": "" } },
{ "pid": 1, "tid": 1, "ts": 19994433.59375, "dur": 2062.00003623962, "ph": "X", "name": "Assemblies", "args": { "durationMS": 2.06200003623962, "detail": "" } },
{ "pid": 1, "tid": 1, "ts": 19996496.09375, "dur": 986.000001430511, "ph": "X", "name": "Metadata Usage Lists", "args": { "durationMS": 0.986000001430511, "detail": "" } },
{ "pid": 1, "tid": 1, "ts": 19997482.421875, "dur": 2631.99996948242, "ph": "X", "name": "Metadata Usage Pairs", "args": { "durationMS": 2.63199996948242, "detail": "" } },
{ "pid": 1, "tid": 1, "ts": 20000404.296875, "dur": 481.99999332428, "ph": "X", "name": "Referenced Assemblies", "args": { "durationMS": 0.48199999332428, "detail": "" } },
{ "pid": 1, "tid": 1, "ts": 20000886.71875, "dur": 1704.99992370605, "ph": "X", "name": "Attribute Types Ranges", "args": { "durationMS": 1.70499992370605, "detail": "" } },
{ "pid": 1, "tid": 1, "ts": 20002591.796875, "dur": 699.999988079071, "ph": "X", "name": "Attribute Types", "args": { "durationMS": 0.699999988079071, "detail": "" } },
{ "pid": 1, "tid": 1, "ts": 20003291.015625, "dur": 360.000014305115, "ph": "X", "name": "Unresolved Virtual Call Parameter Types", "args": { "durationMS": 0.360000014305115, "detail": "" } },
{ "pid": 1, "tid": 1, "ts": 20003650.390625, "dur": 1031.99994564056, "ph": "X", "name": "Unresolved Virtual Call Parameter Ranges", "args": { "durationMS": 1.03199994564056, "detail": "" } },
{ "pid": 1, "tid": 1, "ts": 20004685.546875, "dur": 629.000008106232, "ph": "X", "name": "Windows Runtime type names", "args": { "durationMS": 0.629000008106232, "detail": "" } },
{ "pid": 1, "tid": 1, "ts": 20005312.5, "dur": 1547.99997806549, "ph": "X", "name": "Exported Types", "args": { "durationMS": 1.54799997806549, "detail": "" } }
],
"meta_datetime": "09/15/2020 11:49:28",
"meta_command_line_args": "/Applications/Unity/Unity.app/Contents/il2cpp/build/il2cppcore/il2cppcore.dll --convert-to-cpp --emit-null-checks --enable-array-bounds-check --dotnetprofile=unityaot --profiler-report --map-file-parser=/Applications/Unity/Unity.app/Contents/Tools/MapFileParser/MapFileParser --directory=/Users/panthermac5k/Desktop/RRPlayer2020/Temp/StagingArea/Data/Managed --generatedcppdir=/Users/panthermac5k/Desktop/RRPlayer2020/Temp/il2cppOutput/il2cppOutput",
"meta_cpu_count": "4"}
